<?xml version="1.0" standalone="no"?>
<!DOCTYPE svg PUBLIC "-//W3C//DTD SVG 20010904//EN"
 "http://www.w3.org/TR/2001/REC-SVG-20010904/DTD/svg10.dtd">
<svg version="1.0" xmlns="http://www.w3.org/2000/svg"
 width="1280.000000pt" height="1256.000000pt" viewBox="0 0 1280.000000 1256.000000"
 preserveAspectRatio="xMidYMid meet">
<g transform="translate(0.000000,1256.000000) scale(0.100000,-0.100000)"
fill="#000000" stroke="none">
<path d="M6380 12068 c0 -7 7 -51 15 -98 8 -47 15 -90 15 -97 0 -7 -35 -46
-77 -87 -43 -41 -75 -77 -72 -80 3 -3 50 -12 104 -21 55 -9 103 -19 107 -23 4
-4 28 -49 52 -100 25 -51 48 -92 51 -92 2 0 27 45 54 99 l50 99 88 12 c103 14
123 18 123 30 0 4 -31 37 -68 72 -38 34 -71 68 -75 74 -4 6 2 57 12 112 10 56
16 104 13 106 -3 3 -47 -17 -100 -44 l-95 -50 -95 50 c-52 27 -96 50 -98 50
-2 0 -4 -6 -4 -12z"/>
<path d="M7315 11908 c3 -24 9 -51 11 -60 3 -11 -11 -35 -41 -67 l-46 -50 48
-7 c67 -9 80 -18 109 -75 14 -28 28 -48 32 -45 3 4 18 28 32 54 26 48 39 56
113 67 l39 6 -47 50 c-26 28 -44 56 -42 63 9 24 19 106 13 106 -3 0 -30 -12
-59 -26 l-53 -26 -52 26 c-28 14 -54 26 -58 26 -3 0 -3 -19 1 -42z"/>
<path d="M5076 11649 l7 -60 -43 -44 -43 -44 39 -6 c82 -13 83 -14 112 -72
l29 -56 29 54 c30 55 41 62 118 74 l39 6 -43 44 -43 44 7 60 c4 34 5 61 2 61
-2 0 -28 -11 -57 -24 l-52 -25 -48 25 c-27 13 -51 24 -54 24 -3 0 -3 -27 1
-61z"/>
<path d="M5723 11678 c3 -13 9 -45 13 -71 7 -49 6 -49 -46 -102 l-52 -53 53
-7 c85 -12 98 -20 125 -80 14 -30 30 -55 35 -55 5 0 22 27 39 59 28 56 32 60
72 66 24 3 56 8 71 11 l28 6 -51 54 c-29 30 -50 61 -47 68 11 27 19 128 11
125 -5 -3 -34 -17 -65 -33 l-55 -28 -62 31 c-73 37 -76 37 -69 9z"/>
<path d="M7934 11390 l10 -70 -47 -48 c-26 -26 -47 -50 -47 -53 0 -4 25 -9 56
-13 77 -9 88 -17 114 -81 12 -30 26 -55 31 -55 5 0 22 26 38 59 33 65 35 66
114 76 32 4 57 10 57 13 0 4 -21 28 -47 54 l-47 48 10 70 c5 38 6 70 1 70 -4
0 -30 -11 -57 -25 -27 -14 -56 -25 -65 -25 -9 0 -38 11 -65 25 -27 14 -53 25
-57 25 -5 0 -4 -32 1 -70z"/>
<path d="M7079 11232 c-1 -4 0 -23 1 -42 1 -26 -5 -42 -24 -59 -14 -14 -26
-28 -26 -32 0 -3 20 -12 44 -18 34 -8 46 -17 56 -41 7 -16 15 -30 19 -30 3 1
15 15 26 33 14 21 32 34 58 40 20 5 37 12 37 16 0 4 -12 18 -26 32 -22 21 -25
29 -19 66 3 24 4 43 1 43 -3 0 -21 -8 -41 -17 -33 -16 -37 -16 -70 0 -19 9
-35 13 -36 9z"/>
<path d="M3970 11146 c-12 -36 -26 -68 -33 -73 -7 -5 -39 -17 -72 -27 l-60
-19 35 -26 c83 -62 89 -72 83 -139 -7 -74 -2 -76 66 -27 56 41 60 41 134 16
66 -23 66 -22 38 62 l-20 56 40 55 c21 30 39 57 39 60 0 3 -28 6 -63 6 -71 0
-80 5 -127 73 -18 26 -35 47 -36 47 -1 0 -12 -29 -24 -64z"/>
<path d="M4735 11108 c7 -35 25 -141 25 -150 0 -5 -30 -38 -67 -73 -38 -35
-66 -66 -63 -69 3 -3 37 -10 75 -16 39 -5 79 -12 90 -15 14 -3 34 -31 60 -85
21 -44 42 -80 45 -80 3 0 22 34 43 75 41 84 49 89 151 104 37 6 71 13 74 16 3
3 -23 35 -58 70 l-64 65 12 86 c7 48 11 88 8 91 -2 2 -36 -12 -75 -31 -39 -20
-77 -36 -86 -36 -9 0 -47 16 -85 35 -82 41 -92 43 -85 13z"/>
<path d="M6295 11023 l7 -80 -46 -39 c-25 -21 -45 -43 -43 -49 2 -5 32 -14 68
-20 l64 -10 30 -56 c17 -32 34 -58 39 -59 5 -1 23 25 40 57 l31 58 68 9 c37 5
67 12 67 15 0 4 -20 27 -45 51 -48 47 -53 67 -35 145 5 22 7 42 4 44 -2 3 -29
-7 -60 -22 -30 -15 -62 -27 -71 -27 -8 0 -40 14 -70 31 l-55 32 7 -80z"/>
<path d="M3180 11064 c-6 -14 -10 -31 -10 -37 0 -29 -34 -58 -85 -73 -30 -8
-55 -17 -55 -19 0 -2 23 -19 50 -39 l50 -36 0 -65 c0 -36 2 -65 5 -65 3 0 27
16 55 36 l49 35 55 -17 c31 -10 58 -15 61 -12 3 3 -2 24 -10 48 -21 59 -20 66
21 121 l36 49 -61 0 c-64 0 -82 11 -119 73 -20 34 -30 34 -42 1z"/>
<path d="M9290 11052 c0 -5 -17 -27 -38 -50 -37 -40 -41 -42 -84 -36 -61 8
-67 -6 -26 -62 l32 -45 -17 -48 c-24 -69 -23 -72 24 -56 59 21 80 19 125 -15
21 -16 42 -30 47 -30 4 0 7 27 7 60 l0 60 50 36 c28 20 49 38 47 40 -2 2 -28
12 -58 22 -52 18 -55 20 -74 75 -17 50 -35 74 -35 49z"/>
<path d="M5614 10972 c5 -33 2 -42 -19 -62 -33 -31 -32 -50 3 -50 35 0 46 -8
66 -47 9 -18 18 -33 20 -33 2 0 13 16 24 35 13 22 31 37 49 41 57 12 58 13 28
44 -23 24 -28 38 -27 70 3 45 2 46 -40 24 -29 -15 -34 -15 -65 0 -46 22 -46
21 -39 -22z"/>
<path d="M7633 10887 c6 -51 5 -55 -28 -87 -19 -19 -35 -37 -35 -42 0 -4 17
-10 38 -13 64 -11 69 -14 87 -56 10 -22 22 -42 26 -45 5 -3 17 13 29 35 22 43
45 61 82 61 13 0 30 5 38 10 12 8 8 16 -23 48 -37 37 -37 39 -28 87 5 28 8 51
6 53 -2 2 -21 -6 -44 -17 -50 -26 -62 -26 -103 -1 -18 11 -37 20 -42 20 -5 0
-6 -24 -3 -53z"/>
<path d="M8599 10818 l-54 -73 -93 -3 c-50 -1 -92 -6 -92 -9 0 -4 23 -38 51
-77 l52 -70 -27 -81 c-14 -45 -26 -86 -26 -92 0 -7 33 -1 87 18 48 16 87 29
88 29 1 0 35 -25 76 -56 l74 -55 3 78 c1 43 4 87 7 99 2 11 36 42 75 68 38 27
70 51 70 55 0 3 -39 20 -87 36 l-87 30 -27 82 c-14 46 -28 85 -31 88 -3 3 -30
-27 -59 -67z"/>
<path d="M6760 10723 c0 -4 7 -46 15 -93 l15 -85 -67 -67 c-37 -37 -65 -70
-62 -72 3 -3 41 -11 85 -17 43 -6 86 -18 95 -26 9 -7 31 -45 48 -83 18 -39 36
-70 40 -70 4 0 25 36 46 80 27 55 46 82 60 85 11 2 51 9 89 14 37 6 71 13 74
16 3 3 -25 34 -62 69 -54 52 -66 69 -62 88 16 70 26 151 21 157 -4 3 -38 -11
-76 -31 -37 -21 -76 -38 -86 -38 -9 0 -52 18 -95 41 -43 22 -78 36 -78 32z"/>
<path d="M2550 10616 c-5 -14 -17 -51 -26 -83 -26 -92 -32 -98 -144 -132 -55
-18 -100 -33 -100 -35 0 -2 34 -27 75 -55 110 -77 105 -67 105 -187 0 -57 3
-104 7 -104 3 0 44 27 90 61 l84 61 104 -35 c58 -20 105 -32 105 -28 0 4 -13
47 -30 96 -16 49 -30 95 -30 103 0 9 25 48 55 89 83 109 85 103 -43 103 l-111
0 -56 80 c-31 44 -60 82 -66 85 -5 4 -13 -5 -19 -19z"/>
<path d="M9711 10535 l-42 -55 -69 0 c-43 0 -70 -4 -70 -11 0 -5 16 -31 35
-56 41 -53 42 -61 16 -136 -11 -32 -17 -57 -13 -57 4 0 34 9 67 19 66 21 73
19 136 -30 20 -16 40 -29 43 -29 3 0 6 31 6 69 l0 70 56 40 c30 22 55 43 55
47 0 4 -28 16 -63 28 l-63 21 -23 65 c-13 35 -24 66 -26 67 -2 2 -22 -21 -45
-52z"/>
<path d="M4091 10536 c-13 -52 -22 -60 -81 -76 l-45 -12 26 -22 c15 -11 36
-29 48 -38 16 -14 21 -29 21 -68 0 -27 3 -50 6 -50 3 0 21 12 40 26 35 27 40
27 126 8 l28 -6 -15 42 c-20 57 -19 66 10 104 37 48 33 56 -29 56 -51 0 -54 2
-80 40 -14 22 -30 40 -35 40 -5 0 -14 -20 -20 -44z"/>
<path d="M6136 10344 c7 -54 6 -56 -30 -93 -39 -40 -38 -51 3 -51 51 0 70 -12
90 -56 12 -24 25 -44 30 -44 4 0 16 18 26 41 20 43 46 59 95 59 42 0 43 13 4
51 -35 33 -36 35 -29 92 l6 58 -40 -21 c-50 -25 -78 -25 -116 0 -16 11 -33 20
-38 20 -4 0 -4 -25 -1 -56z"/>
<path d="M10443 10338 c-21 -29 -49 -68 -62 -85 l-22 -33 -111 0 c-128 0 -126
6 -41 -106 l57 -76 -34 -99 c-19 -54 -31 -101 -28 -105 4 -3 50 8 103 26 109
36 94 40 207 -47 31 -23 61 -43 67 -43 7 0 11 38 11 108 l0 109 85 58 c47 32
85 62 85 66 0 4 -46 23 -102 41 l-102 34 -29 95 c-16 52 -32 98 -37 102 -4 5
-26 -15 -47 -45z"/>
<path d="M3464 10338 c-7 -25 -20 -38 -53 -54 l-43 -21 32 -25 c23 -18 33 -35
37 -66 l6 -42 34 21 c30 19 40 20 71 11 20 -6 37 -10 39 -9 1 2 -3 20 -9 40
-10 33 -9 41 11 67 26 36 19 53 -19 45 -22 -5 -33 -1 -54 22 -14 15 -26 31
-26 35 0 21 -18 4 -26 -24z"/>
<path d="M7615 10288 l7 -63 -41 -40 c-23 -21 -41 -42 -41 -46 0 -4 24 -10 53
-14 63 -9 72 -15 104 -79 l26 -50 28 56 c29 58 35 62 107 73 23 4 42 10 42 13
0 3 -18 25 -41 48 l-41 41 11 58 c6 32 9 61 6 64 -3 3 -29 -8 -58 -23 l-52
-29 -52 27 c-29 14 -55 26 -58 26 -4 0 -4 -28 0 -62z"/>
<path d="M5390 10319 c0 -7 5 -50 12 -96 l12 -83 -64 -65 c-35 -35 -62 -66
-59 -69 2 -2 42 -10 89 -17 l85 -14 40 -77 c22 -42 43 -79 47 -83 4 -4 25 29
47 74 30 58 47 82 64 86 27 6 148 25 161 25 5 0 -21 31 -57 69 -37 38 -67 74
-67 79 0 6 7 45 15 88 8 43 12 80 10 83 -3 3 -39 -12 -81 -32 -41 -20 -81 -37
-88 -37 -8 0 -49 18 -90 41 -47 25 -76 36 -76 28z"/>
<path d="M9160 10151 c-17 -24 -29 -30 -65 -33 l-45 -3 25 -36 c22 -30 24 -40
15 -63 -16 -44 -13 -48 35 -41 37 6 49 3 72 -15 l28 -22 3 41 c3 33 10 47 37
68 l34 27 -42 21 c-31 15 -44 28 -51 53 -11 40 -19 40 -46 3z"/>
<path d="M4520 10144 c-6 -14 -10 -31 -10 -37 0 -29 -33 -57 -85 -72 -30 -8
-55 -17 -55 -19 0 -2 23 -20 50 -40 l50 -36 0 -65 c0 -58 9 -80 24 -57 3 5 23
21 45 36 l39 28 56 -18 c31 -10 58 -15 62 -12 3 4 -2 31 -12 61 l-17 55 37 51
38 51 -60 0 c-65 0 -72 4 -112 63 -30 44 -37 45 -50 11z"/>
<path d="M3747 9913 c-2 -4 -17 -45 -31 -90 l-28 -83 -80 -25 c-45 -14 -85
-28 -90 -31 -5 -3 25 -31 66 -61 l76 -54 0 -95 c0 -52 2 -94 5 -94 2 0 35 23
73 50 38 28 75 50 84 50 8 0 48 -11 88 -25 40 -14 77 -25 81 -25 4 0 -2 28
-13 63 -11 34 -24 74 -28 89 -7 24 -1 38 45 100 29 40 51 76 48 81 -2 4 -44 7
-93 7 -100 0 -82 -12 -167 108 -17 24 -33 40 -36 35z"/>
<path d="M6994 9903 c2 -10 7 -38 11 -63 3 -25 8 -57 11 -73 5 -23 -4 -37 -61
-96 l-66 -69 84 -12 c46 -6 88 -15 94 -18 6 -4 28 -43 50 -87 l41 -80 41 83
c44 88 39 85 150 102 35 5 66 12 69 15 3 3 -23 34 -58 70 l-63 64 15 85 c8 47
13 88 10 91 -3 2 -40 -14 -84 -38 l-78 -42 -79 43 c-88 47 -94 49 -87 25z"/>
<path d="M6071 9718 l27 -163 -119 -119 c-66 -66 -116 -122 -112 -126 4 -4 64
-15 133 -24 210 -29 186 -12 270 -188 l73 -153 72 146 c40 80 79 150 87 156 7
6 83 20 168 33 85 12 157 24 160 26 2 3 -49 58 -115 124 l-118 119 28 160 c15
89 25 164 22 167 -3 3 -68 -26 -144 -65 -76 -39 -146 -71 -157 -71 -10 0 -77
32 -149 70 -72 39 -136 70 -142 70 -8 0 -4 -49 16 -162z"/>
<path d="M8491 9782 c-28 -39 -57 -73 -64 -75 -6 -3 -49 -2 -94 1 -53 3 -83 1
-83 -5 0 -6 23 -41 50 -79 28 -38 50 -73 50 -79 0 -5 -12 -45 -26 -88 -14 -43
-24 -80 -22 -83 3 -2 38 7 78 21 40 14 81 25 90 25 9 0 47 -22 83 -50 36 -27
69 -50 72 -50 3 0 5 36 5 81 0 44 4 88 9 97 5 10 39 38 75 62 36 25 64 49 62
55 -1 5 -36 20 -76 32 -41 12 -79 28 -86 35 -6 7 -22 45 -34 83 -12 39 -26 74
-30 79 -5 4 -31 -23 -59 -62z"/>
<path d="M2244 9748 l-20 -63 -67 -24 c-37 -13 -67 -26 -67 -30 1 -3 25 -23
55 -44 l55 -38 0 -75 0 -75 60 43 60 42 67 -22 c37 -12 69 -20 71 -17 2 2 -6
33 -18 70 l-22 66 29 40 c62 88 64 79 -15 79 l-71 0 -42 55 c-23 30 -44 55
-48 55 -4 0 -16 -28 -27 -62z"/>
<path d="M3074 9730 c-19 -70 -30 -81 -108 -104 -32 -10 -54 -21 -50 -25 5 -4
29 -23 54 -41 60 -46 60 -46 60 -117 0 -35 3 -63 6 -63 4 0 28 16 54 35 56 41
59 41 133 16 64 -22 66 -20 42 49 -22 62 -19 78 25 137 l41 53 -68 0 c-37 0
-73 4 -78 8 -6 4 -28 31 -49 60 -21 28 -39 52 -41 52 -2 0 -11 -27 -21 -60z"/>
<path d="M9677 9705 l-38 -55 -69 0 c-39 0 -70 -3 -70 -6 0 -4 16 -28 35 -54
39 -53 42 -69 20 -130 -24 -69 -22 -71 42 -49 31 10 62 19 70 19 8 0 38 -18
66 -40 l52 -39 5 71 5 72 59 45 59 45 -71 24 -71 23 -18 61 c-10 34 -23 63
-28 64 -6 2 -27 -21 -48 -51z"/>
<path d="M11015 9594 c-33 -49 -57 -60 -114 -50 -21 3 -41 3 -44 -1 -4 -3 10
-28 30 -55 l36 -50 -17 -55 c-10 -30 -15 -57 -13 -60 3 -2 30 3 60 13 l55 17
50 -37 c28 -20 53 -32 56 -27 4 5 4 28 0 50 -8 49 9 79 60 111 20 12 36 25 36
30 0 5 -24 16 -52 26 -29 9 -55 18 -57 20 -2 2 -11 27 -21 56 -9 28 -21 53
-26 55 -5 1 -22 -18 -39 -43z"/>
<path d="M4447 9415 l-28 -84 -84 -26 c-47 -14 -85 -29 -85 -33 0 -4 32 -29
70 -56 l70 -49 0 -94 c0 -51 3 -93 6 -93 4 0 37 23 74 50 37 28 74 50 81 50 8
0 47 -12 87 -26 40 -15 75 -24 78 -21 3 3 -7 43 -22 90 l-27 84 51 68 c29 37
52 72 52 76 0 5 -41 9 -90 9 l-90 0 -51 70 c-28 39 -54 70 -58 70 -4 0 -19
-38 -34 -85z"/>
<path d="M9083 9334 c-38 -42 -45 -46 -75 -40 -55 10 -65 -6 -33 -48 28 -37
29 -54 9 -125 -6 -22 -5 -23 17 -17 70 20 88 19 123 -8 47 -35 58 -34 51 7 -9
45 8 81 49 107 20 12 36 25 36 30 0 4 -20 13 -45 20 -53 15 -59 22 -74 78 -7
23 -13 42 -14 42 -1 0 -21 -21 -44 -46z"/>
<path d="M1761 9317 c-6 -16 -11 -32 -11 -37 0 -35 -27 -61 -77 -76 -29 -8
-53 -19 -53 -23 0 -4 20 -22 45 -40 45 -32 45 -33 45 -92 0 -36 4 -59 11 -59
6 0 29 14 51 32 l40 31 55 -17 c30 -10 57 -15 60 -12 3 2 -3 28 -12 56 l-17
52 36 51 36 52 -60 3 c-62 3 -74 11 -122 82 l-16 25 -11 -28z"/>
<path d="M10356 9276 c-23 -31 -33 -36 -67 -36 l-41 0 23 -36 c19 -31 20 -41
11 -72 -6 -20 -10 -38 -7 -40 2 -2 20 1 40 8 33 11 40 10 66 -9 36 -27 49 -20
49 24 0 27 7 39 30 57 17 12 30 25 30 28 0 4 -15 11 -32 16 -25 7 -38 20 -54
52 l-21 43 -27 -35z"/>
<path d="M2585 9141 c-7 -35 -20 -47 -58 -56 -34 -9 -34 -15 3 -48 24 -22 30
-35 30 -67 l0 -41 36 25 c31 21 41 23 71 14 43 -12 48 -7 34 33 -10 29 -8 37
14 71 l25 38 -43 0 c-36 0 -47 5 -65 30 -28 38 -39 38 -47 1z"/>
<path d="M9741 9090 l-51 -70 -95 0 c-52 0 -95 -3 -95 -6 0 -4 23 -37 50 -74
28 -37 50 -77 50 -88 0 -12 -12 -53 -26 -92 -14 -40 -24 -74 -21 -76 2 -2 37
7 77 21 40 14 82 25 92 25 10 0 49 -22 85 -50 36 -27 70 -50 74 -50 5 0 9 42
9 94 l0 95 73 51 c39 28 71 54 69 58 -1 4 -40 18 -85 32 l-82 25 -29 88 c-16
48 -32 87 -37 87 -4 0 -30 -31 -58 -70z"/>
<path d="M3425 9118 c-19 -67 -27 -77 -76 -93 -27 -9 -49 -20 -49 -23 0 -4 18
-20 40 -35 38 -27 40 -31 40 -83 0 -30 4 -54 8 -54 4 0 23 11 42 25 37 28 61
31 109 14 18 -6 35 -9 38 -6 3 3 -1 26 -10 50 -16 47 -12 63 27 105 17 20 18
24 6 32 -8 5 -34 10 -57 10 -37 0 -45 4 -70 40 -32 46 -39 48 -48 18z"/>
<path d="M8655 9023 c-22 -31 -66 -92 -97 -135 l-58 -78 -170 0 c-93 0 -170
-2 -170 -5 0 -3 43 -63 95 -134 52 -71 95 -137 95 -147 0 -11 -23 -84 -50
-163 -28 -79 -48 -146 -46 -148 3 -3 75 18 160 47 115 38 160 49 173 42 10 -6
72 -51 138 -102 l120 -92 5 173 5 173 129 91 c72 50 131 96 133 101 2 6 -67
32 -152 59 -86 27 -158 52 -161 57 -3 4 -25 74 -50 155 -25 81 -48 151 -52
155 -4 4 -25 -19 -47 -49z"/>
<path d="M3986 8883 c-20 -65 -44 -137 -52 -159 l-15 -41 -159 -49 c-88 -27
-159 -52 -158 -56 2 -3 62 -48 133 -100 l130 -93 5 -174 5 -174 130 97 c71 53
138 96 148 96 11 0 85 -23 165 -50 80 -28 147 -48 149 -46 3 3 -19 76 -48 163
l-52 159 101 135 101 134 -169 3 -169 2 -29 38 c-16 20 -59 81 -96 135 -37 53
-71 97 -75 97 -5 0 -25 -53 -45 -117z"/>
<path d="M11110 8823 c-47 -68 -56 -73 -127 -73 -35 0 -63 -3 -63 -6 0 -4 16
-28 35 -54 41 -56 41 -59 16 -133 -12 -33 -16 -57 -10 -57 6 0 39 8 74 17 l63
17 56 -42 56 -43 0 68 c0 37 4 73 8 78 4 6 31 28 60 49 28 21 52 39 52 41 0 2
-26 11 -57 20 -32 9 -63 21 -70 27 -7 5 -21 38 -33 74 -12 35 -23 64 -24 64
-1 0 -18 -21 -36 -47z"/>
<path d="M1993 8683 l-28 -87 -82 -26 c-45 -14 -84 -28 -88 -32 -4 -3 25 -29
63 -57 38 -28 73 -58 76 -67 3 -9 6 -51 6 -95 0 -43 3 -79 6 -79 4 0 38 23 76
52 l70 51 85 -27 c46 -15 87 -25 90 -23 2 3 -8 43 -23 90 l-27 84 56 74 56 74
-97 5 -96 5 -51 72 c-27 40 -53 73 -57 73 -4 0 -19 -39 -35 -87z"/>
<path d="M10539 8678 c-33 -49 -48 -58 -101 -58 -26 0 -48 -2 -48 -5 0 -2 14
-24 30 -47 30 -43 31 -44 15 -87 -8 -24 -15 -47 -15 -52 0 -4 25 -1 54 8 l55
15 39 -30 c22 -18 42 -29 46 -25 3 3 6 27 6 52 0 42 4 49 42 83 l43 37 -30 10
c-64 23 -78 35 -92 84 -7 26 -15 47 -18 47 -2 0 -14 -15 -26 -32z"/>
<path d="M3057 8653 c-2 -5 -15 -39 -27 -78 -12 -38 -27 -75 -31 -81 -5 -6
-44 -21 -87 -34 -42 -12 -80 -25 -85 -29 -4 -4 27 -31 68 -60 l75 -52 0 -95
c0 -51 3 -94 8 -94 4 0 38 23 76 50 38 28 74 50 80 50 6 0 46 -12 88 -27 43
-14 80 -24 83 -21 3 2 -6 38 -20 78 -14 40 -25 82 -25 92 0 10 23 49 52 86
l51 67 -89 5 c-49 3 -95 9 -102 13 -6 5 -30 35 -52 67 -42 62 -56 75 -63 63z"/>
<path d="M6200 8590 c-630 -60 -1183 -351 -1588 -835 -293 -350 -478 -799
-521 -1265 -56 -606 135 -1224 521 -1685 563 -673 1420 -970 2278 -790 434 91
850 322 1170 651 386 398 609 894 651 1456 42 548 -133 1128 -473 1570 -331
429 -829 745 -1348 853 -208 44 -501 63 -690 45z"/>
<path d="M9339 8361 c-28 -39 -59 -72 -68 -72 -9 -1 -51 -1 -93 1 -43 1 -78
-1 -78 -5 0 -4 23 -38 50 -75 28 -37 50 -74 50 -82 0 -8 -11 -48 -25 -88 -14
-40 -23 -75 -21 -78 3 -2 41 8 85 23 89 29 84 30 170 -34 30 -23 58 -41 62
-41 5 0 10 41 11 92 l3 92 72 51 c39 27 69 52 66 55 -2 3 -41 16 -86 30 l-82
25 -27 84 c-15 46 -29 86 -32 88 -3 3 -28 -27 -57 -66z"/>
<path d="M10092 8255 c-32 -44 -34 -45 -91 -45 -32 0 -61 -3 -64 -6 -4 -4 10
-29 30 -56 l36 -50 -17 -55 c-10 -30 -15 -57 -13 -60 3 -2 30 3 60 13 l55 17
50 -37 c42 -31 51 -34 56 -20 4 9 4 32 0 50 -8 42 11 73 60 104 20 12 36 25
36 30 0 5 -22 16 -49 25 -58 19 -68 29 -84 86 -7 23 -17 44 -22 45 -6 2 -25
-17 -43 -41z"/>
<path d="M1407 8093 l-46 -47 -71 10 c-39 5 -73 8 -75 6 -2 -2 10 -33 27 -67
l32 -64 -32 -59 c-17 -32 -30 -61 -27 -64 2 -2 34 0 70 6 l66 9 50 -49 c56
-55 63 -53 72 27 3 27 9 54 12 59 4 6 33 24 66 40 32 17 59 33 59 36 0 3 -17
12 -37 21 -77 32 -91 48 -99 114 -4 33 -10 61 -13 64 -4 2 -28 -17 -54 -42z"/>
<path d="M10920 7969 c-6 -45 -13 -86 -16 -93 -3 -7 -41 -30 -84 -51 -44 -22
-80 -42 -80 -45 0 -3 26 -19 58 -35 107 -56 109 -58 116 -127 4 -35 10 -76 13
-91 l6 -29 68 68 68 67 86 -12 c47 -7 89 -10 93 -7 3 4 -11 37 -31 75 -20 38
-37 76 -37 86 0 10 18 51 40 90 21 40 37 75 34 77 -2 3 -39 -1 -82 -9 -42 -7
-86 -11 -98 -8 -11 2 -44 32 -73 65 -29 33 -56 60 -61 60 -4 0 -13 -36 -20
-81z"/>
<path d="M2492 7739 c-46 -43 -50 -44 -139 -22 -28 6 -29 -6 -3 -57 26 -51 25
-68 -6 -124 l-27 -47 69 6 69 7 39 -41 c41 -42 56 -44 56 -8 0 12 5 38 10 58
8 29 19 40 60 59 27 13 50 27 50 31 0 4 -24 20 -52 36 -52 27 -53 29 -62 86
-5 31 -12 57 -15 57 -3 0 -25 -19 -49 -41z"/>
<path d="M1889 7734 c-36 -38 -50 -43 -99 -34 -25 5 -47 6 -49 4 -3 -2 6 -26
18 -52 l23 -49 -21 -41 c-12 -23 -21 -44 -21 -48 0 -3 24 -3 53 0 50 7 53 6
87 -29 18 -19 37 -35 41 -35 4 0 10 23 14 50 7 48 9 52 56 75 27 14 49 27 49
30 0 3 -19 14 -42 26 -51 26 -54 30 -63 86 -3 23 -10 43 -14 43 -4 0 -18 -12
-32 -26z"/>
<path d="M11615 7634 c-10 -68 -20 -83 -71 -104 -24 -11 -44 -23 -44 -27 0 -4
21 -19 47 -33 49 -26 57 -38 68 -114 l6 -39 44 43 43 42 61 -7 c34 -4 61 -4
61 -1 0 4 -9 24 -20 46 -26 51 -25 68 6 124 l26 47 -67 -7 -66 -7 -44 43 -43
43 -7 -49z"/>
<path d="M902 7451 l-43 -44 -65 7 c-35 4 -64 4 -64 1 0 -3 12 -29 26 -57 l26
-52 -28 -52 c-16 -29 -26 -56 -22 -59 3 -3 30 -2 59 4 l54 10 46 -46 c26 -25
49 -41 52 -36 3 4 8 29 12 54 9 59 11 62 74 94 l54 27 -53 29 c-30 16 -56 31
-58 34 -3 2 -10 32 -16 67 l-11 62 -43 -43z"/>
<path d="M10110 7308 c-6 -46 -17 -89 -23 -97 -6 -7 -45 -29 -86 -47 -86 -40
-86 -43 19 -94 47 -23 72 -41 75 -55 3 -11 10 -51 15 -90 6 -38 13 -72 16 -75
3 -3 34 25 69 63 35 37 65 67 67 67 2 0 41 -7 88 -15 47 -8 88 -15 92 -15 5 0
-11 38 -34 85 l-42 85 42 85 c48 97 52 92 -68 71 l-74 -14 -66 64 c-37 35 -69
64 -72 64 -3 0 -11 -37 -18 -82z"/>
<path d="M3003 7238 l-62 -61 -88 15 c-48 9 -89 15 -91 13 -2 -2 15 -40 38
-84 l41 -82 -42 -80 c-23 -44 -40 -81 -38 -83 2 -2 40 2 84 10 44 8 88 11 97
8 9 -3 40 -32 68 -64 29 -33 55 -58 59 -55 4 2 13 43 20 90 l13 86 79 40 c43
21 79 43 79 47 0 4 -35 25 -78 47 l-77 40 -14 88 c-7 48 -17 87 -20 87 -3 0
-34 -28 -68 -62z"/>
<path d="M1549 7124 c-21 -22 -29 -25 -66 -19 -24 3 -43 4 -43 1 0 -3 8 -21
17 -41 16 -33 16 -37 0 -64 -9 -16 -17 -32 -17 -35 0 -3 19 -6 43 -6 33 0 49
-6 67 -25 13 -14 27 -25 30 -25 4 0 10 18 14 40 5 34 12 43 41 57 19 9 35 20
35 23 0 3 -16 14 -35 23 -29 14 -36 23 -41 57 -4 22 -10 40 -14 40 -3 0 -17
-12 -31 -26z"/>
<path d="M10986 7098 c-3 -7 -7 -26 -11 -41 -4 -20 -16 -33 -43 -44 -33 -14
-35 -17 -18 -27 49 -30 66 -49 66 -75 0 -41 10 -44 41 -15 23 22 35 26 68 22
45 -4 48 0 26 42 -14 27 -14 33 0 60 23 45 20 53 -23 45 -32 -5 -41 -2 -62 19
-26 29 -39 32 -44 14z"/>
<path d="M2200 7016 l-66 -64 -74 14 c-120 21 -116 26 -67 -72 l42 -85 -43
-80 c-24 -45 -42 -83 -39 -85 3 -3 45 2 93 10 l89 16 65 -65 c36 -36 68 -65
71 -65 4 0 12 41 19 91 l12 90 84 42 c46 23 84 44 84 47 0 3 -36 23 -80 45
-43 21 -81 44 -84 51 -3 7 -10 48 -16 93 -7 45 -15 81 -19 81 -3 0 -35 -29
-71 -64z"/>
<path d="M11565 6983 c-10 -75 -20 -91 -80 -120 -30 -15 -55 -31 -55 -35 0 -4
27 -21 59 -38 63 -31 62 -29 76 -127 4 -24 10 -43 14 -43 4 0 27 21 51 46 l45
46 73 -7 c39 -4 72 -4 72 -1 0 3 -14 32 -31 65 l-31 59 33 61 c18 33 31 62 29
64 -3 3 -36 0 -73 -6 l-68 -10 -47 46 c-26 26 -51 47 -54 47 -4 0 -10 -21 -13
-47z"/>
<path d="M9426 6799 c-6 -26 -46 -287 -46 -300 0 -5 -68 -43 -150 -84 -85 -42
-148 -80 -145 -86 4 -5 69 -41 145 -79 76 -38 141 -73 144 -78 2 -4 14 -77 26
-162 12 -85 23 -157 26 -159 3 -3 58 48 123 113 l119 118 161 -27 c89 -16 164
-26 167 -22 3 3 -26 68 -65 144 -39 76 -71 146 -71 156 0 9 33 79 74 155 55
102 71 138 60 140 -14 3 -258 -33 -297 -45 -13 -3 -52 28 -142 118 -113 112
-124 120 -129 98z"/>
<path d="M900 6704 c-36 -36 -72 -69 -80 -74 -9 -5 -57 -1 -115 10 -55 10
-101 17 -103 15 -2 -2 17 -44 42 -94 25 -50 46 -96 46 -103 0 -6 -21 -52 -46
-101 -25 -49 -43 -91 -41 -94 3 -3 52 3 108 12 l101 17 77 -76 c42 -42 79 -76
82 -76 3 0 12 42 19 93 7 50 17 100 22 110 5 9 49 37 98 62 50 25 90 47 90 50
0 3 -40 25 -89 50 -49 24 -92 49 -96 55 -5 9 -34 176 -35 203 0 17 -19 3 -80
-59z"/>
<path d="M3256 6604 c-55 -59 -109 -110 -121 -116 -15 -6 -62 -2 -159 16 -209
39 -198 51 -108 -124 l77 -150 -78 -150 c-91 -175 -102 -162 108 -126 86 15
146 21 156 15 9 -4 64 -59 123 -120 58 -62 109 -110 112 -107 3 3 14 64 24
134 11 71 22 144 25 162 6 30 15 37 155 107 83 41 150 77 150 80 0 3 -62 36
-138 74 -76 38 -144 76 -150 84 -7 8 -22 85 -34 171 -13 88 -27 156 -33 156
-5 0 -55 -48 -109 -106z"/>
<path d="M10327 6594 c-3 -11 -8 -36 -12 -57 -5 -32 -12 -41 -51 -59 -24 -12
-44 -24 -44 -28 0 -3 20 -16 44 -28 44 -24 56 -43 56 -94 0 -40 13 -41 51 -2
33 35 35 36 92 29 l58 -6 -21 40 c-25 50 -25 62 0 111 11 22 20 41 20 44 0 2
-25 2 -56 -1 -53 -6 -56 -5 -94 32 -33 32 -39 35 -43 19z"/>
<path d="M1768 6453 l-46 -46 -68 11 c-38 6 -70 10 -72 8 -1 -2 11 -33 29 -68
l31 -64 -32 -63 -31 -63 71 7 72 7 49 -48 c27 -26 51 -45 54 -42 3 3 10 31 15
62 5 31 12 61 15 66 4 6 34 24 67 41 33 17 57 33 53 37 -3 4 -32 20 -63 37
-53 28 -58 33 -65 75 -16 83 -17 90 -25 90 -4 0 -28 -21 -54 -47z"/>
<path d="M10966 6448 c-2 -13 -8 -43 -13 -68 -7 -42 -12 -47 -64 -75 -32 -16
-58 -34 -59 -39 -1 -5 25 -23 57 -40 l58 -31 10 -62 c6 -34 13 -65 17 -69 4
-4 28 14 52 41 l45 48 53 -7 c29 -4 63 -10 76 -13 23 -5 22 -4 -10 61 l-32 66
32 66 33 65 -79 -6 -79 -7 -39 46 c-43 52 -52 55 -58 24z"/>
<path d="M11809 6333 c-18 -131 -17 -128 -124 -179 -52 -25 -95 -47 -95 -50 0
-2 45 -26 100 -54 55 -28 100 -54 100 -58 0 -4 7 -50 15 -102 8 -52 15 -99 15
-104 0 -5 38 27 84 73 69 67 89 81 108 76 43 -10 183 -33 186 -30 2 2 -17 44
-42 94 -25 50 -46 98 -46 107 0 9 21 54 46 101 25 46 44 87 41 90 -3 3 -48 -2
-100 -11 -52 -9 -99 -16 -105 -16 -5 0 -43 34 -83 75 -40 41 -76 75 -80 75 -4
0 -13 -39 -20 -87z"/>
<path d="M2429 6234 c-33 -35 -35 -36 -91 -29 -32 3 -58 4 -58 1 0 -3 10 -26
22 -51 l22 -45 -22 -45 c-12 -25 -22 -47 -22 -50 0 -2 25 -1 56 2 54 6 56 5
94 -32 l39 -38 6 39 c12 68 16 75 61 97 24 11 44 24 44 27 0 4 -18 15 -41 25
-45 21 -59 40 -59 82 0 52 -13 56 -51 17z"/>
<path d="M10510 5939 c-6 -45 -13 -86 -16 -93 -3 -7 -41 -30 -84 -51 -44 -22
-80 -42 -80 -45 0 -3 36 -24 80 -45 88 -43 84 -38 99 -149 6 -37 12 -71 15
-74 3 -3 37 24 74 61 l68 65 75 -14 c119 -23 116 -25 70 64 -23 43 -41 83 -41
90 0 7 18 48 40 92 22 44 37 80 33 80 -5 0 -46 -7 -93 -15 l-85 -15 -65 65
c-36 36 -68 65 -72 65 -3 0 -11 -36 -18 -81z"/>
<path d="M1170 5894 l-45 -46 -72 7 c-40 3 -73 3 -73 0 0 -3 13 -32 29 -64
l30 -58 -32 -61 c-17 -34 -29 -63 -27 -65 3 -3 36 0 74 6 l69 11 44 -47 c24
-26 48 -47 52 -47 5 0 12 25 16 57 4 31 9 61 11 68 3 6 32 25 64 40 33 16 60
32 60 37 0 4 -27 21 -59 38 -63 31 -66 36 -76 118 -4 28 -10 52 -14 52 -4 0
-27 -21 -51 -46z"/>
<path d="M9710 5701 c-6 -43 -15 -83 -18 -88 -4 -6 -43 -28 -87 -50 l-80 -41
83 -41 c88 -44 85 -39 102 -150 5 -35 12 -66 15 -69 3 -3 34 22 69 57 l64 63
88 -15 c49 -8 91 -13 92 -12 2 2 -15 40 -38 84 l-42 81 42 81 c23 44 40 82 38
84 -1 2 -37 -3 -78 -10 -41 -8 -81 -14 -88 -14 -8 -1 -42 26 -76 59 -35 33
-65 60 -68 60 -3 0 -11 -35 -18 -79z"/>
<path d="M2599 5644 l-65 -65 -88 16 c-48 9 -90 15 -92 12 -2 -2 15 -41 38
-86 l43 -81 -43 -81 c-24 -45 -41 -83 -38 -86 3 -3 34 0 69 6 110 19 116 18
182 -49 33 -33 62 -60 66 -60 4 0 10 26 14 58 14 120 16 123 107 168 l82 41
-84 44 c-93 49 -89 42 -105 172 -3 31 -10 57 -13 57 -4 0 -37 -30 -73 -66z"/>
<path d="M1780 5665 c-18 -19 -34 -25 -68 -25 -38 0 -43 -2 -37 -17 16 -38 16
-72 0 -103 l-17 -32 42 7 c38 6 45 4 75 -25 l34 -33 5 24 c3 13 7 33 8 44 2
11 21 29 42 41 l39 22 -34 17 c-41 21 -49 32 -49 67 0 37 -13 42 -40 13z"/>
<path d="M11205 5609 c-6 -33 -13 -43 -41 -56 -19 -9 -34 -19 -34 -22 1 -3 15
-15 33 -26 20 -13 35 -33 41 -55 13 -47 12 -47 45 -16 26 25 34 27 70 21 23
-4 41 -4 41 -1 0 3 -7 21 -17 40 -13 29 -14 39 -3 65 17 42 15 46 -28 43 -29
-3 -43 2 -61 22 -14 14 -28 26 -32 26 -4 0 -10 -18 -14 -41z"/>
<path d="M11845 5387 c-4 -30 -10 -59 -13 -64 -4 -6 -31 -22 -60 -37 -29 -15
-51 -30 -48 -34 3 -5 27 -19 55 -32 54 -25 56 -28 66 -104 l7 -49 43 43 44 43
65 -7 c36 -4 66 -4 66 -1 0 3 -12 29 -26 57 l-26 52 26 53 c14 29 26 56 26 59
0 6 -68 -3 -102 -12 -11 -3 -35 11 -67 41 l-49 46 -7 -54z"/>
<path d="M1135 5200 l-40 -42 -68 7 -67 6 27 -55 27 -56 -27 -55 -27 -56 66 7
66 7 41 -44 41 -44 11 56 c12 66 22 80 75 104 22 10 40 21 40 25 0 4 -18 15
-40 25 -53 24 -63 38 -75 102 l-10 54 -40 -41z"/>
<path d="M10246 5086 c-8 -59 -18 -72 -85 -106 l-44 -22 59 -32 c58 -31 59
-32 67 -85 4 -30 9 -57 12 -59 3 -3 25 14 50 37 39 36 51 41 76 37 16 -3 43
-9 59 -12 37 -7 38 2 4 65 l-25 49 25 51 c14 28 26 53 26 56 0 3 -28 3 -62 -1
l-63 -6 -40 41 c-21 23 -42 41 -46 41 -4 0 -10 -24 -13 -54z"/>
<path d="M10865 5067 c-9 -56 -11 -60 -65 -87 -40 -21 -43 -24 -26 -34 76 -45
81 -51 89 -104 l9 -53 44 41 c34 31 50 39 69 35 89 -18 83 -23 53 40 l-22 45
22 45 c12 25 22 48 22 51 0 4 -24 3 -53 0 -50 -7 -53 -6 -87 29 -18 19 -37 35
-41 35 -4 0 -11 -20 -14 -43z"/>
<path d="M1795 4989 c-67 -68 -44 -63 -206 -43 l-50 7 42 -86 43 -86 -42 -79
c-23 -43 -40 -81 -37 -84 3 -3 44 2 91 10 l86 14 69 -68 c47 -47 70 -63 73
-53 3 8 11 50 18 94 l13 80 65 32 c116 58 113 51 35 90 -99 50 -101 53 -115
149 -7 46 -15 84 -19 84 -4 0 -33 -27 -66 -61z"/>
<path d="M11339 4828 c-1 -2 -6 -32 -13 -68 l-11 -65 -56 -30 c-32 -16 -58
-34 -59 -39 -1 -5 25 -23 57 -40 57 -31 58 -32 66 -86 13 -89 13 -88 67 -35
l50 49 70 -10 c38 -5 70 -6 70 -1 0 4 -11 30 -25 57 -32 63 -31 72 4 136 17
28 28 54 26 56 -2 2 -37 -1 -76 -6 l-72 -10 -42 47 c-36 41 -52 54 -56 45z"/>
<path d="M3320 4561 l0 -90 -75 -52 c-41 -29 -72 -56 -68 -60 5 -4 40 -17 78
-28 39 -12 75 -24 81 -28 6 -5 22 -42 35 -83 12 -41 26 -79 30 -84 4 -4 30 24
59 63 28 39 59 72 68 72 9 1 47 1 84 -1 37 -1 71 1 77 4 6 4 -10 35 -39 75
-28 37 -50 74 -50 83 0 8 11 48 25 88 14 40 23 75 21 78 -3 2 -42 -9 -89 -24
l-84 -27 -68 51 c-37 29 -72 52 -76 52 -5 0 -9 -40 -9 -89z"/>
<path d="M2606 4613 c-3 -4 -6 -32 -6 -64 l0 -57 -51 -38 -52 -38 53 -18 c68
-23 75 -29 90 -83 7 -25 17 -48 21 -51 5 -3 23 15 41 41 l32 45 63 0 c39 0 63
4 63 11 0 6 -14 31 -32 55 l-32 44 18 56 c10 31 15 58 13 61 -3 2 -30 -3 -60
-13 l-55 -17 -50 36 c-28 19 -53 33 -56 30z"/>
<path d="M8790 4425 c-69 -52 -134 -95 -145 -95 -11 0 -85 23 -164 50 -79 28
-146 48 -148 46 -3 -3 18 -75 47 -161 60 -181 68 -142 -68 -320 l-84 -110 173
-5 173 -5 91 -129 c50 -72 96 -131 101 -133 6 -2 32 67 59 152 27 86 52 158
57 161 4 3 74 25 155 50 81 25 151 48 155 52 4 4 -52 50 -125 102 l-132 95 -3
173 c-1 94 -6 172 -10 171 -4 0 -63 -43 -132 -94z"/>
<path d="M3950 4286 c0 -145 -2 -168 -18 -184 -9 -9 -72 -55 -139 -102 -67
-47 -120 -87 -117 -90 3 -3 76 -28 162 -55 l156 -51 50 -162 c27 -88 53 -159
58 -156 4 3 49 62 99 132 l90 127 176 5 175 5 -90 121 c-49 66 -94 129 -99
139 -8 14 1 54 42 174 29 86 52 158 50 160 -2 1 -74 -20 -160 -49 -153 -51
-156 -52 -183 -34 -22 14 -181 131 -239 177 -10 7 -13 -25 -13 -157z"/>
<path d="M9745 4380 c-38 -27 -74 -50 -80 -50 -5 0 -45 12 -88 26 -43 14 -80
24 -83 22 -2 -3 7 -38 21 -78 14 -40 25 -81 25 -90 0 -9 -22 -47 -50 -83 -27
-36 -50 -69 -50 -72 0 -3 36 -5 81 -5 44 0 88 -4 97 -9 10 -5 38 -39 62 -75
25 -36 49 -64 55 -62 5 1 20 36 32 76 12 41 28 79 35 86 7 6 45 22 83 34 39
12 74 26 79 30 4 5 -24 31 -63 60 -39 28 -71 57 -72 63 -1 7 0 49 1 95 1 45
-2 82 -7 82 -5 0 -40 -22 -78 -50z"/>
<path d="M10777 4268 l-69 -51 -85 27 c-46 15 -87 25 -90 23 -3 -3 7 -42 22
-87 l27 -81 -25 -37 c-14 -20 -39 -56 -57 -79 l-32 -43 91 0 c103 0 101 1 165
-93 22 -31 42 -57 46 -57 4 0 20 39 36 87 l29 88 83 26 c46 14 83 30 84 34 0
4 -31 31 -68 59 l-69 51 -3 93 c-1 50 -6 92 -10 92 -4 0 -38 -24 -75 -52z"/>
<path d="M2180 4115 c0 -53 -1 -56 -40 -83 -21 -15 -38 -31 -36 -36 1 -6 22
-16 45 -24 34 -11 46 -22 57 -51 8 -20 18 -44 22 -54 6 -16 12 -12 40 27 31
43 35 45 88 48 l55 3 -31 42 -32 43 17 51 c9 27 15 52 13 54 -2 3 -27 -3 -55
-12 -50 -16 -51 -16 -84 9 -60 44 -59 44 -59 -17z"/>
<path d="M1588 4040 c5 -65 -1 -74 -89 -141 l-34 -27 60 -17 c33 -10 66 -22
73 -28 7 -5 19 -35 28 -66 9 -31 20 -60 24 -64 4 -5 17 7 28 26 48 76 65 87
137 87 36 0 65 3 65 6 0 3 -13 23 -28 43 -50 64 -51 69 -30 133 11 33 17 62
14 65 -3 4 -30 -1 -60 -10 -70 -22 -71 -22 -126 18 -26 19 -52 35 -57 35 -5 0
-7 -26 -5 -60z"/>
<path d="M2910 3836 l0 -94 -76 -52 c-42 -29 -72 -56 -67 -60 4 -4 33 -15 63
-25 113 -34 107 -29 135 -121 14 -46 29 -84 33 -84 4 0 31 31 60 70 l52 69 96
3 96 3 -44 60 c-71 96 -69 88 -37 183 16 47 27 87 26 89 -2 1 -37 -8 -77 -22
-40 -14 -82 -25 -93 -25 -11 0 -50 23 -87 50 -37 28 -70 50 -74 50 -3 0 -6
-42 -6 -94z"/>
<path d="M9365 3704 c-30 -25 -58 -27 -124 -8 -22 6 -23 5 -17 -17 20 -71 19
-88 -9 -125 -33 -43 -24 -54 42 -54 39 0 45 -4 69 -40 15 -22 30 -40 34 -40 4
0 13 20 20 45 15 53 22 59 78 74 23 7 42 15 42 19 0 4 -16 17 -36 30 -41 27
-58 64 -49 109 7 41 -8 43 -50 7z"/>
<path d="M10199 3605 c-30 -22 -40 -24 -63 -15 -44 16 -48 13 -41 -35 6 -37 3
-49 -15 -72 l-22 -28 28 -3 c56 -5 69 -12 88 -43 l19 -32 21 44 c16 33 29 46
54 53 40 11 40 19 3 46 -24 17 -30 29 -33 65 l-3 45 -36 -25z"/>
<path d="M6370 3452 l-75 -147 -160 -23 c-88 -13 -162 -26 -165 -28 -2 -3 49
-58 114 -123 l118 -119 -26 -145 c-27 -151 -31 -187 -19 -187 3 0 66 32 139
70 74 39 143 70 154 70 11 0 82 -33 158 -74 114 -62 137 -71 140 -57 2 10 -8
85 -22 167 l-26 149 122 122 c112 112 120 122 97 127 -26 6 -287 46 -300 46
-5 0 -43 68 -84 150 -41 83 -78 150 -83 150 -4 0 -41 -66 -82 -148z"/>
<path d="M8330 3530 c-36 -27 -72 -50 -81 -50 -8 0 -49 11 -89 25 -40 14 -75
23 -78 21 -2 -3 8 -41 23 -85 29 -89 30 -84 -34 -170 -23 -30 -41 -58 -41 -62
0 -5 41 -10 92 -11 l92 -3 46 -65 c26 -36 51 -64 56 -62 5 1 21 37 35 80 l25
77 87 28 c48 16 87 32 87 35 0 4 -32 29 -70 55 -39 27 -71 54 -71 60 -1 7 -1
49 1 95 1 45 -2 82 -6 82 -5 0 -38 -23 -74 -50z"/>
<path d="M11023 3538 l-41 -31 -48 17 c-74 25 -76 24 -53 -41 l19 -57 -27 -38
c-14 -22 -30 -41 -35 -44 -23 -14 -2 -24 52 -24 l60 0 37 -50 c20 -27 38 -48
40 -46 2 1 11 27 21 57 18 52 20 55 75 74 31 11 57 22 57 25 0 4 -20 20 -45
38 -45 31 -45 32 -45 92 0 70 -6 72 -67 28z"/>
<path d="M2370 3450 c0 -32 -5 -43 -30 -62 -16 -12 -30 -25 -30 -28 0 -4 15
-11 33 -16 24 -7 37 -20 52 -51 l21 -42 27 34 c24 30 34 35 69 35 40 0 40 0
24 23 -27 37 -30 49 -19 89 11 42 10 43 -36 27 -28 -10 -37 -9 -61 10 -41 30
-50 27 -50 -19z"/>
<path d="M3620 3436 c0 -51 -2 -54 -40 -81 -22 -15 -40 -31 -40 -35 0 -3 21
-13 48 -21 44 -14 48 -18 66 -68 l20 -54 20 25 c12 14 29 35 39 47 15 19 25
21 55 17 59 -10 67 4 32 51 l-30 40 16 47 c9 26 14 50 11 53 -3 3 -28 -1 -56
-8 -48 -12 -51 -11 -85 14 -19 15 -39 27 -45 27 -7 0 -11 -22 -11 -54z"/>
<path d="M1686 3273 c-3 -3 -6 -32 -6 -64 l0 -57 -52 -38 -53 -37 54 -18 c69
-24 76 -30 91 -84 7 -25 17 -48 21 -51 5 -3 23 16 41 41 36 50 59 61 118 51
49 -8 50 1 8 60 l-32 44 18 56 c10 31 15 58 13 60 -3 3 -30 -2 -61 -11 l-56
-16 -49 35 c-26 20 -51 33 -55 29z"/>
<path d="M4163 3224 c-3 -8 -3 -47 -1 -86 6 -81 6 -81 -91 -147 -33 -23 -61
-44 -61 -46 0 -2 37 -16 82 -30 45 -14 87 -30 94 -36 6 -5 22 -45 34 -89 13
-44 26 -80 31 -80 4 0 29 29 55 65 25 36 54 69 63 74 9 5 54 7 99 4 51 -4 82
-2 82 4 0 6 -22 40 -50 76 -27 36 -50 74 -50 84 0 10 12 51 26 91 15 40 24 75
21 78 -3 3 -41 -6 -84 -20 -43 -14 -83 -26 -89 -26 -6 0 -41 23 -77 50 -36 28
-69 50 -72 50 -3 0 -8 -7 -12 -16z"/>
<path d="M3007 3203 c-4 -3 -4 -25 0 -49 9 -67 -2 -89 -62 -131 -30 -21 -55
-41 -55 -44 0 -3 27 -14 61 -24 68 -21 82 -36 100 -107 6 -27 15 -48 20 -48 5
0 27 25 49 55 l41 55 69 0 c39 0 70 2 70 5 0 2 -18 29 -39 60 l-40 56 20 56
c28 84 28 85 -38 62 -70 -24 -82 -24 -113 2 -56 44 -78 58 -83 52z"/>
<path d="M9060 3130 c-36 -27 -74 -50 -85 -50 -11 0 -53 12 -93 26 -40 15 -75
25 -77 22 -3 -2 6 -38 20 -78 14 -40 25 -82 25 -92 0 -10 -22 -49 -50 -85 -27
-36 -50 -70 -50 -74 0 -5 42 -9 94 -9 l95 0 49 -71 c28 -38 54 -70 59 -71 4 0
19 38 33 83 l26 84 87 30 c48 16 87 33 87 37 0 3 -31 29 -70 57 l-70 51 0 95
c0 52 -3 95 -7 95 -5 0 -37 -23 -73 -50z"/>
<path d="M9710 3145 c-52 -40 -67 -42 -136 -15 -29 10 -54 17 -57 14 -3 -3 3
-31 14 -61 10 -31 19 -62 19 -70 0 -8 -18 -38 -40 -66 l-39 -52 71 -5 72 -5
45 -59 45 -59 24 71 23 71 61 18 c34 10 63 23 65 28 1 6 -22 27 -52 48 l-55
38 0 70 c0 38 -3 69 -7 69 -5 0 -28 -16 -53 -35z"/>
<path d="M5633 3138 c-6 -7 -25 -42 -43 -78 -18 -36 -37 -68 -43 -71 -5 -4
-33 -10 -61 -13 -28 -4 -66 -9 -84 -13 l-34 -6 67 -67 68 -68 -17 -88 c-9 -48
-14 -89 -12 -91 2 -2 39 15 83 38 l79 43 82 -42 c94 -49 91 -53 70 69 l-11 70
63 64 c35 36 62 67 59 70 -3 2 -39 10 -81 16 -41 6 -80 14 -85 17 -6 4 -28 42
-50 85 -30 61 -42 76 -50 65z"/>
<path d="M10531 3114 c-51 -40 -63 -41 -132 -14 -28 12 -54 19 -56 16 -3 -3 5
-34 17 -71 l22 -66 -41 -54 c-23 -30 -41 -56 -41 -59 0 -3 32 -6 72 -8 l72 -3
39 -55 c21 -30 41 -54 45 -52 4 2 16 31 27 65 l20 62 65 23 c35 13 66 25 68
27 2 2 -22 22 -52 44 l-56 42 0 69 c0 82 -5 84 -69 34z"/>
<path d="M2208 2688 l-3 -113 -65 -48 c-36 -26 -76 -56 -89 -66 l-25 -17 90
-28 c49 -15 98 -34 110 -41 14 -9 30 -44 49 -109 16 -53 33 -95 38 -93 5 1 35
38 66 82 l57 80 112 3 c62 1 112 5 112 8 0 3 -28 44 -62 91 l-62 85 33 100
c18 55 30 102 28 105 -3 2 -51 -10 -106 -28 l-100 -33 -78 60 c-43 33 -83 64
-90 68 -9 5 -13 -21 -15 -106z"/>
<path d="M7195 2670 c-26 -54 -46 -82 -60 -85 -11 -3 -51 -10 -90 -15 -38 -6
-72 -13 -75 -16 -2 -3 20 -29 51 -57 83 -77 81 -73 64 -163 -8 -44 -15 -85
-15 -91 0 -8 33 4 85 29 l85 42 85 -42 c97 -48 92 -52 71 68 l-14 74 64 66
c35 37 64 69 64 72 0 3 -37 11 -82 18 -46 7 -89 18 -97 24 -7 6 -29 43 -47 83
-18 40 -37 73 -41 73 -5 0 -27 -36 -48 -80z"/>
<path d="M8266 2712 l-48 -35 -54 18 c-30 10 -57 16 -60 13 -3 -4 2 -31 12
-61 l17 -55 -37 -51 -38 -51 54 0 c61 0 86 -14 118 -65 12 -19 25 -35 30 -35
5 0 17 26 27 57 19 57 21 58 73 74 30 9 56 21 58 28 2 6 0 11 -6 11 -5 0 -28
18 -51 39 -42 39 -43 41 -36 89 4 28 3 52 -2 55 -4 3 -30 -11 -57 -31z"/>
<path d="M3570 2581 c0 -34 -5 -44 -36 -67 l-35 -27 43 -21 c32 -16 45 -29 52
-53 5 -18 12 -33 16 -33 3 0 16 14 28 30 19 25 30 30 62 30 22 0 40 3 40 6 0
4 -10 22 -21 41 -18 29 -20 39 -10 59 18 41 14 46 -34 38 -34 -5 -50 -2 -63 8
-37 32 -42 31 -42 -11z"/>
<path d="M5050 2509 c-28 -58 -36 -64 -108 -74 l-53 -7 46 -49 c30 -32 44 -56
41 -67 -9 -34 -18 -102 -12 -102 3 0 30 12 59 26 l53 26 52 -26 c28 -14 54
-26 57 -26 3 0 3 28 -1 63 l-6 62 41 40 c23 21 41 42 41 46 0 4 -24 11 -53 14
-30 4 -59 10 -64 13 -6 4 -22 31 -37 60 -14 28 -28 52 -29 52 -2 0 -14 -23
-27 -51z"/>
<path d="M10242 2479 l-82 -61 -105 35 c-71 24 -105 32 -105 23 0 -7 14 -52
30 -101 17 -49 30 -92 30 -96 0 -4 -27 -44 -60 -88 -33 -45 -60 -86 -60 -91 0
-6 43 -10 109 -10 l108 0 59 -85 c33 -47 63 -84 67 -82 5 1 23 47 41 102 l32
100 96 30 c53 16 100 33 103 37 4 4 -32 35 -79 69 l-86 63 0 108 c0 59 -4 108
-8 108 -5 0 -45 -27 -90 -61z"/>
<path d="M6538 2418 c-19 -35 -30 -45 -63 -52 -72 -15 -71 -14 -31 -55 37 -38
38 -39 31 -96 l-8 -57 41 21 c51 26 63 26 113 0 23 -11 43 -19 45 -16 2 2 0
25 -5 52 -9 47 -8 49 31 91 43 46 43 45 -35 59 -32 5 -41 12 -59 51 -12 24
-25 44 -29 44 -4 0 -18 -19 -31 -42z"/>
<path d="M9318 2408 c-24 -19 -32 -20 -65 -10 -20 6 -39 10 -41 7 -2 -2 1 -20
8 -40 11 -33 10 -40 -9 -66 -26 -35 -20 -52 15 -43 19 5 31 -1 59 -30 18 -20
35 -36 38 -36 2 0 9 18 16 40 10 34 17 41 52 50 l41 11 -36 34 c-29 26 -36 40
-36 69 0 41 -5 43 -42 14z"/>
<path d="M2980 2317 c0 -72 -6 -81 -73 -127 -27 -17 -45 -35 -42 -38 4 -4 34
-16 68 -27 l62 -20 20 -62 c11 -34 23 -64 26 -68 4 -3 24 19 45 49 l39 56 73
0 c39 0 72 4 72 9 0 4 -16 29 -35 54 -40 52 -41 61 -18 133 9 30 14 57 10 60
-3 3 -34 -3 -68 -15 l-62 -21 -53 40 c-29 22 -56 40 -59 40 -3 0 -5 -28 -5
-63z"/>
<path d="M5830 2280 c-19 -39 -41 -77 -50 -84 -8 -7 -50 -18 -93 -24 -43 -5
-81 -13 -85 -16 -3 -4 23 -36 58 -71 l64 -65 -12 -86 c-7 -48 -11 -89 -8 -92
3 -2 37 12 75 32 38 20 76 36 85 36 9 0 52 -18 96 -40 44 -22 80 -39 80 -38 0
2 -7 41 -15 88 -8 47 -15 89 -15 93 0 5 29 36 65 69 36 34 65 64 65 68 0 4
-35 13 -77 19 -43 7 -85 14 -94 17 -8 2 -33 40 -54 84 -21 44 -42 80 -45 80
-3 0 -21 -32 -40 -70z"/>
<path d="M8695 2264 c-30 -26 -47 -27 -127 -8 l-27 6 16 -51 17 -51 -31 -44
c-17 -24 -29 -47 -26 -50 4 -3 29 -6 57 -6 48 0 53 -3 80 -41 31 -44 38 -43
55 13 15 45 24 53 81 68 l45 12 -25 20 c-69 55 -70 56 -70 108 0 27 -3 50 -7
50 -5 -1 -21 -12 -38 -26z"/>
<path d="M4060 2122 c0 -102 1 -100 -91 -163 -32 -22 -59 -43 -59 -47 0 -4 39
-21 87 -37 l87 -30 26 -85 c14 -47 30 -83 35 -81 6 2 30 31 54 65 24 34 49 64
55 68 6 4 50 8 99 8 48 0 87 3 87 6 0 4 -22 37 -50 74 -27 37 -50 75 -50 83 0
9 11 46 25 83 14 36 25 72 25 80 0 9 -23 5 -87 -17 l-87 -29 -35 24 c-20 13
-55 38 -78 56 l-43 32 0 -90z"/>
<path d="M7850 1861 c-41 -83 -44 -86 -125 -96 -27 -3 -63 -8 -79 -11 l-28 -6
68 -69 67 -68 -12 -86 c-7 -47 -11 -88 -8 -91 3 -3 37 11 76 30 39 20 77 36
86 36 9 0 47 -16 85 -35 38 -19 73 -35 78 -35 5 0 2 41 -6 91 l-15 92 69 66
69 66 -75 13 c-41 7 -84 14 -95 17 -14 3 -33 30 -60 85 -21 44 -43 80 -47 80
-4 0 -26 -36 -48 -79z"/>
<path d="M5043 1876 c-22 -45 -29 -49 -97 -61 l-39 -6 38 -39 c37 -38 38 -40
32 -94 -3 -31 -4 -56 -2 -56 3 0 25 10 50 22 l45 22 45 -22 c25 -12 48 -22 51
-22 3 0 2 25 -1 55 -7 54 -7 55 29 87 20 17 36 35 36 39 0 5 -17 11 -37 14
-64 11 -68 14 -91 60 -12 25 -25 45 -30 45 -4 0 -18 -20 -29 -44z"/>
<path d="M6348 1798 l-33 -63 -65 -9 c-36 -5 -67 -10 -69 -12 -2 -2 17 -26 42
-53 50 -53 53 -67 36 -140 -5 -24 -7 -46 -4 -49 3 -3 30 6 61 21 30 15 60 27
67 27 8 0 39 -14 71 -31 l58 -32 -7 78 -8 77 49 49 c26 27 46 49 44 50 -3 1
-34 6 -70 13 l-65 11 -30 57 c-17 31 -33 60 -37 63 -3 4 -21 -22 -40 -57z"/>
<path d="M3440 1791 l0 -59 -50 -37 c-28 -21 -49 -39 -47 -41 2 -2 28 -12 58
-22 53 -18 54 -20 72 -75 10 -31 21 -57 25 -57 4 0 20 20 37 45 33 49 47 55
104 48 53 -7 59 9 20 58 -35 45 -35 36 -2 151 5 17 2 17 -43 3 -68 -21 -81
-19 -124 15 -21 17 -41 30 -44 30 -3 0 -6 -27 -6 -59z"/>
<path d="M9607 1793 l-48 -36 -54 19 c-30 10 -57 15 -60 12 -4 -4 1 -31 11
-61 l17 -54 -37 -49 -38 -49 63 -5 c61 -5 64 -7 97 -50 19 -25 38 -46 42 -48
4 -2 17 23 27 54 19 57 20 58 76 77 31 10 57 23 57 28 0 5 -4 9 -8 9 -5 0 -28
18 -51 39 -42 39 -43 41 -36 89 4 28 3 52 -2 55 -4 3 -30 -11 -56 -30z"/>
<path d="M7096 1751 c-19 -35 -44 -51 -80 -51 -33 0 -33 -10 0 -41 21 -20 25
-31 22 -66 -4 -48 0 -50 42 -28 27 14 33 14 60 0 44 -23 51 -20 44 23 -5 32
-2 43 20 69 33 39 32 43 -1 43 -36 0 -46 7 -71 49 l-20 33 -16 -31z"/>
<path d="M8810 1725 c-53 -41 -59 -41 -135 -15 l-57 20 5 -23 c2 -12 11 -44
18 -70 9 -32 10 -53 4 -62 -6 -8 -25 -35 -43 -60 l-33 -45 70 0 c77 0 81 -2
132 -76 16 -24 32 -44 34 -44 1 0 13 31 24 70 l21 69 70 21 c39 11 70 23 70
25 0 2 -20 18 -44 34 -73 50 -76 56 -76 127 0 35 -3 64 -7 64 -5 0 -28 -16
-53 -35z"/>
<path d="M5622 1516 c-16 -27 -29 -35 -62 -41 l-42 -7 31 -32 c29 -30 31 -37
25 -75 l-7 -43 31 16 c39 20 55 20 92 1 l30 -16 0 48 c0 37 6 53 26 74 l26 27
-42 7 c-34 6 -44 13 -57 41 -9 19 -20 34 -24 34 -4 0 -16 -15 -27 -34z"/>
<path d="M4711 1432 c-33 -66 -35 -67 -114 -77 -32 -4 -57 -10 -57 -13 0 -4
21 -28 47 -54 l46 -47 -10 -68 c-6 -37 -9 -70 -6 -72 2 -3 28 7 59 22 67 33
78 33 133 2 23 -14 47 -25 53 -25 5 0 7 27 2 71 l-7 71 48 48 c53 54 54 54
-35 67 -54 8 -55 9 -85 65 -17 31 -33 60 -37 63 -4 4 -20 -20 -37 -53z"/>
<path d="M6913 1196 c-30 -61 -34 -64 -75 -71 -76 -11 -98 -16 -98 -24 0 -4
21 -27 46 -51 l46 -45 -7 -73 -7 -73 64 32 64 31 63 -31 c35 -18 64 -31 66
-29 1 2 -2 34 -8 71 l-10 68 46 47 c26 26 47 51 47 54 0 4 -21 10 -47 14 -78
11 -90 19 -123 84 -17 33 -32 60 -33 60 -1 0 -17 -29 -34 -64z"/>
<path d="M7585 1130 c-22 -43 -30 -50 -62 -55 -94 -15 -91 -11 -43 -60 l42
-43 -7 -61 c-4 -34 -4 -61 -1 -61 4 0 29 11 55 25 l49 24 48 -24 c27 -14 52
-25 56 -25 4 0 5 27 1 61 l-6 60 43 44 43 44 -39 6 c-77 12 -88 18 -112 68
-12 26 -27 47 -32 47 -5 0 -21 -22 -35 -50z"/>
<path d="M6174 997 c-54 -109 -54 -109 -179 -122 -107 -12 -106 -8 -21 -94 86
-86 86 -86 61 -215 -8 -44 -14 -81 -12 -83 2 -2 48 19 101 47 l98 51 95 -51
c52 -28 97 -49 99 -47 3 2 -4 53 -13 112 l-17 108 79 73 c44 40 78 75 74 78
-3 3 -49 12 -104 21 -54 9 -103 18 -107 21 -5 3 -30 49 -57 102 l-49 97 -48
-98z"/>
<path d="M5343 908 c-29 -54 -41 -62 -117 -73 l-39 -6 43 -44 43 -43 -8 -66
c-3 -36 -4 -66 -1 -66 3 0 28 12 55 27 l49 28 56 -28 c31 -15 59 -27 62 -27 3
0 3 14 0 30 -3 17 -9 43 -12 60 -5 25 1 37 41 79 l46 49 -62 11 c-34 6 -63 12
-64 13 -2 2 -14 27 -29 56 -14 28 -28 52 -31 52 -2 0 -16 -24 -32 -52z"/>
</g>
</svg>
