1. text-shadow                          index.html   
2. div border-radius                    preprocesor.html
3. rgba hsla                            patrz radial-gradient, ustawienia koloru
4. box-shadow                           preprocesor.html
5. gradient liniowy                     form1.html 
    radialny                            literatura.html
6. background-image, background-position, background-origin, background-repeat. 
7. border-imagesource, border-image-slice, border-image-repeat
8. animation oraz reguły @keyframes
9. transition i transform
10. @font-face                          index.html NIE DZIALA //TODO
